{
  "process_parameters": {
    "training_parameters": {
      "bfs": {
        "mcmc_params": {
          "target_acceptance_probability": 0.8,
          "num_chains": 1,
          "chain_method": "parallel",
          "num_warmup_draws": 5000,
          "num_posterior_draws": 15000,
          "random_seed": 0,
          "progress_bar": false,
          "display_summary": true
        }
      },
      "moas": {
        "num_restarts": 500,
        "random_seed_for_restarts": 0,
        "pymanopt_solver_params": {
          "maxiter": 5000,
          "minstepsize": 1e-05,
          "mingradnorm": 0.2,
          "cost_improvement_threshold": 0.001,
          "no_cost_improvement_streak": 50
        }
      },
      "bgp": {
        "mcmc_params": {
          "target_acceptance_probability": 0.8,
          "num_chains": 1,
          "chain_method": "parallel",
          "num_warmup_draws": 5000,
          "num_posterior_draws": 15000,
          "random_seed": 0,
          "progress_bar": false,
          "display_summary": true
        }
      }
    },
    "validation_parameters": {
      "confidence_interval_bounds_cdf_values": [
        0.025,
        0.975
      ],
      "num_gp_samples": 15,
      "random_seed": 0
    }
  },
  "cases": {
    "0": {
      "name": "bfs_onera_m6_lift_1dFS_100TS_RS867",
      "model_name": "bfs",
      "num_training_samples": 100,
      "dim_feature_space": 1,
      "dataset_split_random_seed": 867,
      "dataset_name": "onera_m6",
      "output_name": "lift",
      "training_indices": [
        12,
        15,
        18,
        19,
        21,
        22,
        23,
        24,
        25,
        29,
        30,
        31,
        33,
        35,
        37,
        40,
        48,
        49,
        51,
        52,
        54,
        59,
        62,
        64,
        67,
        71,
        74,
        83,
        85,
        87,
        89,
        93,
        101,
        103,
        105,
        106,
        107,
        111,
        112,
        117,
        118,
        122,
        126,
        134,
        139,
        140,
        141,
        142,
        145,
        146,
        156,
        166,
        169,
        172,
        174,
        177,
        182,
        186,
        196,
        199,
        200,
        201,
        202,
        205,
        206,
        207,
        209,
        210,
        211,
        213,
        217,
        220,
        224,
        228,
        230,
        235,
        236,
        239,
        241,
        247,
        248,
        252,
        253,
        256,
        259,
        261,
        263,
        266,
        268,
        270,
        274,
        278,
        282,
        283,
        284,
        286,
        291,
        294,
        295,
        296
      ]
    },
    "1": {
      "name": "bfs_onera_m6_lift_1dFS_250TS_RS867",
      "model_name": "bfs",
      "num_training_samples": 250,
      "dim_feature_space": 1,
      "dataset_split_random_seed": 867,
      "dataset_name": "onera_m6",
      "output_name": "lift",
      "training_indices": [
        0,
        1,
        2,
        4,
        5,
        6,
        7,
        9,
        10,
        11,
        12,
        14,
        15,
        17,
        18,
        19,
        21,
        22,
        23,
        24,
        25,
        26,
        29,
        30,
        31,
        32,
        33,
        34,
        35,
        36,
        37,
        38,
        39,
        40,
        41,
        43,
        44,
        45,
        47,
        48,
        49,
        50,
        51,
        52,
        54,
        55,
        56,
        57,
        59,
        61,
        62,
        63,
        64,
        65,
        66,
        67,
        68,
        70,
        71,
        72,
        74,
        75,
        76,
        77,
        78,
        79,
        80,
        81,
        83,
        84,
        85,
        86,
        87,
        88,
        89,
        91,
        92,
        93,
        94,
        95,
        96,
        97,
        98,
        99,
        100,
        101,
        102,
        103,
        104,
        105,
        106,
        107,
        108,
        109,
        110,
        111,
        112,
        113,
        114,
        115,
        117,
        118,
        121,
        122,
        123,
        124,
        125,
        126,
        127,
        128,
        130,
        131,
        133,
        134,
        135,
        136,
        138,
        139,
        140,
        141,
        142,
        144,
        145,
        146,
        148,
        149,
        150,
        151,
        152,
        153,
        155,
        156,
        157,
        159,
        161,
        162,
        163,
        164,
        165,
        166,
        167,
        168,
        169,
        171,
        172,
        174,
        175,
        176,
        177,
        178,
        180,
        181,
        182,
        183,
        184,
        186,
        188,
        189,
        191,
        192,
        194,
        195,
        196,
        197,
        198,
        199,
        200,
        201,
        202,
        203,
        205,
        206,
        207,
        208,
        209,
        210,
        211,
        212,
        213,
        214,
        215,
        216,
        217,
        218,
        219,
        220,
        221,
        222,
        223,
        224,
        225,
        226,
        227,
        228,
        229,
        230,
        231,
        232,
        234,
        235,
        236,
        238,
        239,
        241,
        242,
        243,
        244,
        247,
        248,
        249,
        251,
        252,
        253,
        255,
        256,
        257,
        259,
        260,
        261,
        262,
        263,
        265,
        266,
        267,
        268,
        269,
        270,
        271,
        272,
        273,
        274,
        276,
        277,
        278,
        281,
        282,
        283,
        284,
        285,
        286,
        287,
        288,
        289,
        290,
        291,
        292,
        293,
        294,
        295,
        296
      ]
    },
    "2": {
      "name": "bfs_onera_m6_lift_5dFS_100TS_RS867",
      "model_name": "bfs",
      "num_training_samples": 100,
      "dim_feature_space": 5,
      "dataset_split_random_seed": 867,
      "dataset_name": "onera_m6",
      "output_name": "lift",
      "training_indices": [
        12,
        15,
        18,
        19,
        21,
        22,
        23,
        24,
        25,
        29,
        30,
        31,
        33,
        35,
        37,
        40,
        48,
        49,
        51,
        52,
        54,
        59,
        62,
        64,
        67,
        71,
        74,
        83,
        85,
        87,
        89,
        93,
        101,
        103,
        105,
        106,
        107,
        111,
        112,
        117,
        118,
        122,
        126,
        134,
        139,
        140,
        141,
        142,
        145,
        146,
        156,
        166,
        169,
        172,
        174,
        177,
        182,
        186,
        196,
        199,
        200,
        201,
        202,
        205,
        206,
        207,
        209,
        210,
        211,
        213,
        217,
        220,
        224,
        228,
        230,
        235,
        236,
        239,
        241,
        247,
        248,
        252,
        253,
        256,
        259,
        261,
        263,
        266,
        268,
        270,
        274,
        278,
        282,
        283,
        284,
        286,
        291,
        294,
        295,
        296
      ]
    },
    "3": {
      "name": "bfs_onera_m6_lift_5dFS_250TS_RS867",
      "model_name": "bfs",
      "num_training_samples": 250,
      "dim_feature_space": 5,
      "dataset_split_random_seed": 867,
      "dataset_name": "onera_m6",
      "output_name": "lift",
      "training_indices": [
        0,
        1,
        2,
        4,
        5,
        6,
        7,
        9,
        10,
        11,
        12,
        14,
        15,
        17,
        18,
        19,
        21,
        22,
        23,
        24,
        25,
        26,
        29,
        30,
        31,
        32,
        33,
        34,
        35,
        36,
        37,
        38,
        39,
        40,
        41,
        43,
        44,
        45,
        47,
        48,
        49,
        50,
        51,
        52,
        54,
        55,
        56,
        57,
        59,
        61,
        62,
        63,
        64,
        65,
        66,
        67,
        68,
        70,
        71,
        72,
        74,
        75,
        76,
        77,
        78,
        79,
        80,
        81,
        83,
        84,
        85,
        86,
        87,
        88,
        89,
        91,
        92,
        93,
        94,
        95,
        96,
        97,
        98,
        99,
        100,
        101,
        102,
        103,
        104,
        105,
        106,
        107,
        108,
        109,
        110,
        111,
        112,
        113,
        114,
        115,
        117,
        118,
        121,
        122,
        123,
        124,
        125,
        126,
        127,
        128,
        130,
        131,
        133,
        134,
        135,
        136,
        138,
        139,
        140,
        141,
        142,
        144,
        145,
        146,
        148,
        149,
        150,
        151,
        152,
        153,
        155,
        156,
        157,
        159,
        161,
        162,
        163,
        164,
        165,
        166,
        167,
        168,
        169,
        171,
        172,
        174,
        175,
        176,
        177,
        178,
        180,
        181,
        182,
        183,
        184,
        186,
        188,
        189,
        191,
        192,
        194,
        195,
        196,
        197,
        198,
        199,
        200,
        201,
        202,
        203,
        205,
        206,
        207,
        208,
        209,
        210,
        211,
        212,
        213,
        214,
        215,
        216,
        217,
        218,
        219,
        220,
        221,
        222,
        223,
        224,
        225,
        226,
        227,
        228,
        229,
        230,
        231,
        232,
        234,
        235,
        236,
        238,
        239,
        241,
        242,
        243,
        244,
        247,
        248,
        249,
        251,
        252,
        253,
        255,
        256,
        257,
        259,
        260,
        261,
        262,
        263,
        265,
        266,
        267,
        268,
        269,
        270,
        271,
        272,
        273,
        274,
        276,
        277,
        278,
        281,
        282,
        283,
        284,
        285,
        286,
        287,
        288,
        289,
        290,
        291,
        292,
        293,
        294,
        295,
        296
      ]
    }
  }
}